<svg xmlns="http://www.w3.org/2000/svg" width="47" height="84" viewBox="0 0 47 84">
  <defs>
    <style>
      .cls-1 {
        fill: #41719c;
        fill-rule: evenodd;
      }
    </style>
  </defs>
  <path id="back-top-arrow.svg" class="cls-1" d="M4601.2,2085.85a3.028,3.028,0,0,1-2.51-1.48,4.4,4.4,0,0,1,.55-5.39l40.62-38.15a2.836,2.836,0,0,1,4.47.67,4.39,4.39,0,0,1-.56,5.39l-40.61,38.15A2.824,2.824,0,0,1,4601.2,2085.85Zm0.03-7.86a3.019,3.019,0,0,0-2.52,1.49,4.4,4.4,0,0,0,.56,5.4l40.59,38.29a2.837,2.837,0,0,0,4.47-.68,4.419,4.419,0,0,0-.56-5.41l-40.59-38.28A2.819,2.819,0,0,0,4601.23,2077.99Z" transform="translate(-4598 -2040)"/>
</svg>
