<svg xmlns="http://www.w3.org/2000/svg" width="68" height="67" viewBox="0 0 68 67">
  <defs>
    <style>
      .cls-1 {
        fill: #41719c;
        fill-rule: evenodd;
      }
    </style>
  </defs>
  <path id="search.svg" class="cls-1" d="M3148.03,2122.15l-10.73-10.75a6.358,6.358,0,0,0-4.18-1.81,28.21,28.21,0,1,0-6.71,6.94,6.326,6.326,0,0,0,1.78,3.99l10.73,10.76a6.921,6.921,0,0,0,9.11,0A6.318,6.318,0,0,0,3148.03,2122.15Zm-38.09-8.8a19.38,19.38,0,1,1,19.35-19.38A19.391,19.391,0,0,1,3109.94,2113.35Z" transform="translate(-3082 -2066)"/>
</svg>
