<svg xmlns="http://www.w3.org/2000/svg" width="53" height="38.03" viewBox="0 0 53 38.03">
  <defs>
    <style>
      .cls-1 {
        fill: #fff;
        fill-rule: evenodd;
      }
    </style>
  </defs>
  <path id="booktickets.svg" class="cls-1" d="M98.96,3687.31a2.048,2.048,0,0,0-2.038,2.06v2.48a8.432,8.432,0,0,0,0,16.33v6.73H67.664a2.417,2.417,0,0,0,.18-0.92,2.442,2.442,0,1,0-4.706.92H52.073v-6.73a8.432,8.432,0,0,0,0-16.33v-6.73H63.137a2.506,2.506,0,0,0,.529,2.67,2.445,2.445,0,0,0,1.735.71,2.451,2.451,0,0,0,2.259-3.38h31.3a2.055,2.055,0,0,0,0-4.11H50.035A2.046,2.046,0,0,0,48,3683.06v10.58a2.046,2.046,0,0,0,2.039,2.05,4.32,4.32,0,0,1,0,8.64A2.048,2.048,0,0,0,48,3706.39v10.57a2.048,2.048,0,0,0,2.039,2.06H98.96a2.049,2.049,0,0,0,2.039-2.06v-10.57a2.049,2.049,0,0,0-2.039-2.06,4.32,4.32,0,0,1,0-8.64,2.047,2.047,0,0,0,2.039-2.05v-4.27A2.049,2.049,0,0,0,98.96,3687.31ZM65.4,3692.89a2.47,2.47,0,1,0,2.442,2.46A2.454,2.454,0,0,0,65.4,3692.89Zm0,9.31a2.47,2.47,0,1,0,2.442,2.48A2.458,2.458,0,0,0,65.4,3702.2Z" transform="translate(-48 -3681)"/>
</svg>
