<svg xmlns="http://www.w3.org/2000/svg" xmlns:xlink="http://www.w3.org/1999/xlink" width="855" height="371" viewBox="0 0 855 371">
  <defs>
    <style>
      .cls-1 {
        font-size: 112.751px;
        filter: url(#filter);
        fill: #0fff;
        text-anchor: end;
        font-family: Montserrat;
        font-weight: 700;
        text-transform: uppercase;
      }
    </style>
    <filter id="filter" x="119" y="1184" width="855" height="371" filterUnits="userSpaceOnUse">
      <feOffset result="offset" dy="6" in="SourceAlpha"/>
      <feGaussianBlur result="blur" stdDeviation="2.236"/>
      <feFlood result="flood" flood-opacity="0.35"/>
      <feComposite result="composite" operator="in" in2="blur"/>
      <feBlend result="blend" in="SourceGraphic"/>
    </filter>
  </defs>
  <text id="instant_easy_powerful.svg" data-name="instant  easy powerful.svg" class="cls-1" transform="translate(848.811 111.196) scale(1.391)"><tspan x="0">instant </tspan><tspan x="0" dy="89.073">easy</tspan><tspan x="0" dy="89.073">powerful</tspan></text>
</svg>
